SecondaryEventS...  DEBUG Initializing secondary event selector SecondaryEventSelector
SecondaryEventS...  DEBUG reinitialization...
Stream1.Stream1...   INFO Initializing Stream1.Stream1Tool
AthenaPoolAddre...  DEBUG Cannot retrieve DataHeader from DetectorStore.
AthenaPoolAddre...  DEBUG Cannot retrieve DataHeader from DetectorStore.
Stream1              INFO Data output: OverlayRDO.root
Stream1              INFO ../O reinitialization...
SecondaryEventS...  DEBUG EventSelectorAthenaPool::nextWithSkip
AthenaPoolAddre...  DEBUG Created dataHeader SecondaryEventSelector
AthenaPoolAddre...  DEBUG The current Event contains: 38 objects
AthenaPoolAddre...  DEBUG loadAddresses: DataObject address, clid = 2540, name = Bkg_PixelRDOs
AthenaPoolAddre...  DEBUG loadAddresses: DataObject address, clid = 2541, name = Bkg_SCT_RDOs
AthenaPoolAddre...  DEBUG loadAddresses: DataObject address, clid = 2542, name = Bkg_TRT_RDOs
AthenaPoolAddre...  DEBUG loadAddresses: DataObject address, clid = 2543, name = Bkg_BCM_SDO_Map
AthenaPoolAddre...  DEBUG loadAddresses: DataObject address, clid = 2543, name = Bkg_PixelSDO_Map
AthenaPoolAddre...  DEBUG loadAddresses: DataObject address, clid = 2543, name = Bkg_SCT_SDO_Map
AthenaPoolAddre...  DEBUG loadAddresses: DataObject address, clid = 2543, name = Bkg_TRT_SDO_Map
AthenaPoolAddre...  DEBUG loadAddresses: DataObject address, clid = 2590, name = Bkg_BCM_RDOs
AthenaPoolAddre...  DEBUG loadAddresses: DataObject address, clid = 2711, name = Bkg_LArDigitContainer_MC
AthenaPoolAddre...  DEBUG loadAddresses: DataObject address, clid = 2771, name = Bkg_LArTTL1EM
AthenaPoolAddre...  DEBUG loadAddresses: DataObject address, clid = 2771, name = Bkg_LArTTL1HAD
AthenaPoolAddre...  DEBUG loadAddresses: DataObject address, clid = 2925, name = Bkg_MuRcvDigitsCnt
AthenaPoolAddre...  DEBUG loadAddresses: DataObject address, clid = 2925, name = Bkg_TileDigitsCnt
AthenaPoolAddre...  DEBUG loadAddresses: DataObject address, clid = 2933, name = Bkg_TileTTL1Cnt
AthenaPoolAddre...  DEBUG loadAddresses: DataObject address, clid = 2933, name = Bkg_TileTTL1MBTS
AthenaPoolAddre...  DEBUG loadAddresses: DataObject address, clid = 2934, name = Bkg_TileL2Cnt
AthenaPoolAddre...  DEBUG loadAddresses: DataObject address, clid = 2954, name = Bkg_TileMuRcvCnt
AthenaPoolAddre...  DEBUG loadAddresses: DataObject address, clid = 4183, name = Bkg_CSCRDO
AthenaPoolAddre...  DEBUG loadAddresses: DataObject address, clid = 4186, name = Bkg_TGCRDO
AthenaPoolAddre...  DEBUG loadAddresses: DataObject address, clid = 4187, name = Bkg_MDTCSM
AthenaPoolAddre...  DEBUG loadAddresses: DataObject address, clid = 4190, name = Bkg_RPCPAD
AthenaPoolAddre...  DEBUG loadAddresses: DataObject address, clid = 133273, name = Bkg_TruthEvent
AthenaPoolAddre...  DEBUG loadAddresses: DataObject address, clid = 38853911, name = Bkg_EventInfoAux.
AthenaPoolAddre...  DEBUG loadAddresses: DataObject address, clid = 41658935, name = Bkg_MDT_SDO
AthenaPoolAddre...  DEBUG loadAddresses: DataObject address, clid = 41658935, name = Bkg_RPC_SDO
AthenaPoolAddre...  DEBUG loadAddresses: DataObject address, clid = 41658935, name = Bkg_TGC_SDO
AthenaPoolAddre...  DEBUG loadAddresses: DataObject address, clid = 45903698, name = Bkg_EventInfo
AthenaPoolAddre...  DEBUG loadAddresses: DataObject address, clid = 76321643, name = Bkg_EVNTtoHITS_timings
AthenaPoolAddre...  DEBUG loadAddresses: DataObject address, clid = 76321643, name = Bkg_HITStoRDO_timings
AthenaPoolAddre...  DEBUG loadAddresses: DataObject address, clid = 1095642046, name = Bkg_CSC_SDO
AthenaPoolAddre...  DEBUG loadAddresses: DataObject address, clid = 1235574503, name = Bkg_MuonEntryLayer
AthenaPoolAddre...  DEBUG loadAddresses: DataObject address, clid = 1244316195, name = Bkg_InTimeAntiKt4TruthJets
AthenaPoolAddre...  DEBUG loadAddresses: DataObject address, clid = 1244316195, name = Bkg_OutOfTimeAntiKt4TruthJets
AthenaPoolAddre...  DEBUG loadAddresses: DataObject address, clid = 1272974287, name = PileUpEventInfoAux.
AthenaPoolAddre...  DEBUG loadAddresses: DataObject address, clid = 1294631886, name = Bkg_InTimeAntiKt4TruthJetsAux.
AthenaPoolAddre...  DEBUG loadAddresses: DataObject address, clid = 1294631886, name = Bkg_OutOfTimeAntiKt4TruthJetsAux.
AthenaPoolAddre...  DEBUG loadAddresses: DataObject address, clid = 1320594112, name = PileUpEventInfo
AthenaPoolAddre...  DEBUG The current Event contains: 24 objects
AthenaPoolAddre...  DEBUG loadAddresses: DataObject address, clid = 2101, name = McEventInfo
AthenaPoolAddre...  DEBUG loadAddresses: DataObject address, clid = 2545, name = BCMHits
AthenaPoolAddre...  DEBUG loadAddresses: DataObject address, clid = 2545, name = BLMHits
AthenaPoolAddre...  DEBUG loadAddresses: DataObject address, clid = 2545, name = PixelHits
AthenaPoolAddre...  DEBUG loadAddresses: DataObject address, clid = 2545, name = SCT_Hits
AthenaPoolAddre...  DEBUG loadAddresses: DataObject address, clid = 2701, name = LArHitEMB
AthenaPoolAddre...  DEBUG loadAddresses: DataObject address, clid = 2701, name = LArHitEMEC
AthenaPoolAddre...  DEBUG loadAddresses: DataObject address, clid = 2701, name = LArHitFCAL
AthenaPoolAddre...  DEBUG loadAddresses: DataObject address, clid = 2701, name = LArHitHEC
AthenaPoolAddre...  DEBUG loadAddresses: DataObject address, clid = 2701, name = LArHitMiniFCAL
AthenaPoolAddre...  DEBUG loadAddresses: DataObject address, clid = 2960, name = MBTSHits
AthenaPoolAddre...  DEBUG loadAddresses: DataObject address, clid = 2960, name = TileHitVec
AthenaPoolAddre...  DEBUG loadAddresses: DataObject address, clid = 4051, name = RPC_Hits
AthenaPoolAddre...  DEBUG loadAddresses: DataObject address, clid = 4052, name = TGC_Hits
AthenaPoolAddre...  DEBUG loadAddresses: DataObject address, clid = 4053, name = CSC_Hits
AthenaPoolAddre...  DEBUG loadAddresses: DataObject address, clid = 4054, name = MDT_Hits
AthenaPoolAddre...  DEBUG loadAddresses: DataObject address, clid = 133273, name = TruthEvent
AthenaPoolAddre...  DEBUG loadAddresses: DataObject address, clid = 76321643, name = EVNTtoHITS_timings
AthenaPoolAddre...  DEBUG loadAddresses: DataObject address, clid = 947021836, name = TRTUncompressedHits
AthenaPoolAddre...  DEBUG loadAddresses: DataObject address, clid = 1235574503, name = CaloEntryLayer
AthenaPoolAddre...  DEBUG loadAddresses: DataObject address, clid = 1235574503, name = MuonEntryLayer
AthenaPoolAddre...  DEBUG loadAddresses: DataObject address, clid = 1235574503, name = MuonExitLayer
AthenaPoolAddre...  DEBUG loadAddresses: DataObject address, clid = 1312841250, name = LArCalibrationHitDeadMaterial
SecondaryEventS...  DEBUG EventSelectorAthenaPool::nextWithSkip
AthenaPoolAddre...  DEBUG Created dataHeader SecondaryEventSelector
AthenaPoolAddre...  DEBUG The current Event contains: 38 objects
AthenaPoolAddre...  DEBUG loadAddresses: DataObject address, clid = 2540, name = Bkg_PixelRDOs
AthenaPoolAddre...  DEBUG loadAddresses: DataObject address, clid = 2541, name = Bkg_SCT_RDOs
AthenaPoolAddre...  DEBUG loadAddresses: DataObject address, clid = 2542, name = Bkg_TRT_RDOs
AthenaPoolAddre...  DEBUG loadAddresses: DataObject address, clid = 2543, name = Bkg_BCM_SDO_Map
AthenaPoolAddre...  DEBUG loadAddresses: DataObject address, clid = 2543, name = Bkg_PixelSDO_Map
AthenaPoolAddre...  DEBUG loadAddresses: DataObject address, clid = 2543, name = Bkg_SCT_SDO_Map
AthenaPoolAddre...  DEBUG loadAddresses: DataObject address, clid = 2543, name = Bkg_TRT_SDO_Map
AthenaPoolAddre...  DEBUG loadAddresses: DataObject address, clid = 2590, name = Bkg_BCM_RDOs
AthenaPoolAddre...  DEBUG loadAddresses: DataObject address, clid = 2711, name = Bkg_LArDigitContainer_MC
AthenaPoolAddre...  DEBUG loadAddresses: DataObject address, clid = 2771, name = Bkg_LArTTL1EM
AthenaPoolAddre...  DEBUG loadAddresses: DataObject address, clid = 2771, name = Bkg_LArTTL1HAD
AthenaPoolAddre...  DEBUG loadAddresses: DataObject address, clid = 2925, name = Bkg_MuRcvDigitsCnt
AthenaPoolAddre...  DEBUG loadAddresses: DataObject address, clid = 2925, name = Bkg_TileDigitsCnt
AthenaPoolAddre...  DEBUG loadAddresses: DataObject address, clid = 2933, name = Bkg_TileTTL1Cnt
AthenaPoolAddre...  DEBUG loadAddresses: DataObject address, clid = 2933, name = Bkg_TileTTL1MBTS
AthenaPoolAddre...  DEBUG loadAddresses: DataObject address, clid = 2934, name = Bkg_TileL2Cnt
AthenaPoolAddre...  DEBUG loadAddresses: DataObject address, clid = 2954, name = Bkg_TileMuRcvCnt
AthenaPoolAddre...  DEBUG loadAddresses: DataObject address, clid = 4183, name = Bkg_CSCRDO
AthenaPoolAddre...  DEBUG loadAddresses: DataObject address, clid = 4186, name = Bkg_TGCRDO
AthenaPoolAddre...  DEBUG loadAddresses: DataObject address, clid = 4187, name = Bkg_MDTCSM
AthenaPoolAddre...  DEBUG loadAddresses: DataObject address, clid = 4190, name = Bkg_RPCPAD
AthenaPoolAddre...  DEBUG loadAddresses: DataObject address, clid = 133273, name = Bkg_TruthEvent
AthenaPoolAddre...  DEBUG loadAddresses: DataObject address, clid = 38853911, name = Bkg_EventInfoAux.
AthenaPoolAddre...  DEBUG loadAddresses: DataObject address, clid = 41658935, name = Bkg_MDT_SDO
AthenaPoolAddre...  DEBUG loadAddresses: DataObject address, clid = 41658935, name = Bkg_RPC_SDO
AthenaPoolAddre...  DEBUG loadAddresses: DataObject address, clid = 41658935, name = Bkg_TGC_SDO
AthenaPoolAddre...  DEBUG loadAddresses: DataObject address, clid = 45903698, name = Bkg_EventInfo
AthenaPoolAddre...  DEBUG loadAddresses: DataObject address, clid = 76321643, name = Bkg_EVNTtoHITS_timings
AthenaPoolAddre...  DEBUG loadAddresses: DataObject address, clid = 76321643, name = Bkg_HITStoRDO_timings
AthenaPoolAddre...  DEBUG loadAddresses: DataObject address, clid = 1095642046, name = Bkg_CSC_SDO
AthenaPoolAddre...  DEBUG loadAddresses: DataObject address, clid = 1235574503, name = Bkg_MuonEntryLayer
AthenaPoolAddre...  DEBUG loadAddresses: DataObject address, clid = 1244316195, name = Bkg_InTimeAntiKt4TruthJets
AthenaPoolAddre...  DEBUG loadAddresses: DataObject address, clid = 1244316195, name = Bkg_OutOfTimeAntiKt4TruthJets
AthenaPoolAddre...  DEBUG loadAddresses: DataObject address, clid = 1272974287, name = PileUpEventInfoAux.
AthenaPoolAddre...  DEBUG loadAddresses: DataObject address, clid = 1294631886, name = Bkg_InTimeAntiKt4TruthJetsAux.
AthenaPoolAddre...  DEBUG loadAddresses: DataObject address, clid = 1294631886, name = Bkg_OutOfTimeAntiKt4TruthJetsAux.
AthenaPoolAddre...  DEBUG loadAddresses: DataObject address, clid = 1320594112, name = PileUpEventInfo
AthenaPoolAddre...  DEBUG The current Event contains: 24 objects
AthenaPoolAddre...  DEBUG loadAddresses: DataObject address, clid = 2101, name = McEventInfo
AthenaPoolAddre...  DEBUG loadAddresses: DataObject address, clid = 2545, name = BCMHits
AthenaPoolAddre...  DEBUG loadAddresses: DataObject address, clid = 2545, name = BLMHits
AthenaPoolAddre...  DEBUG loadAddresses: DataObject address, clid = 2545, name = PixelHits
AthenaPoolAddre...  DEBUG loadAddresses: DataObject address, clid = 2545, name = SCT_Hits
AthenaPoolAddre...  DEBUG loadAddresses: DataObject address, clid = 2701, name = LArHitEMB
AthenaPoolAddre...  DEBUG loadAddresses: DataObject address, clid = 2701, name = LArHitEMEC
AthenaPoolAddre...  DEBUG loadAddresses: DataObject address, clid = 2701, name = LArHitFCAL
AthenaPoolAddre...  DEBUG loadAddresses: DataObject address, clid = 2701, name = LArHitHEC
AthenaPoolAddre...  DEBUG loadAddresses: DataObject address, clid = 2701, name = LArHitMiniFCAL
AthenaPoolAddre...  DEBUG loadAddresses: DataObject address, clid = 2960, name = MBTSHits
AthenaPoolAddre...  DEBUG loadAddresses: DataObject address, clid = 2960, name = TileHitVec
AthenaPoolAddre...  DEBUG loadAddresses: DataObject address, clid = 4051, name = RPC_Hits
AthenaPoolAddre...  DEBUG loadAddresses: DataObject address, clid = 4052, name = TGC_Hits
AthenaPoolAddre...  DEBUG loadAddresses: DataObject address, clid = 4053, name = CSC_Hits
AthenaPoolAddre...  DEBUG loadAddresses: DataObject address, clid = 4054, name = MDT_Hits
AthenaPoolAddre...  DEBUG loadAddresses: DataObject address, clid = 133273, name = TruthEvent
AthenaPoolAddre...  DEBUG loadAddresses: DataObject address, clid = 76321643, name = EVNTtoHITS_timings
AthenaPoolAddre...  DEBUG loadAddresses: DataObject address, clid = 947021836, name = TRTUncompressedHits
AthenaPoolAddre...  DEBUG loadAddresses: DataObject address, clid = 1235574503, name = CaloEntryLayer
AthenaPoolAddre...  DEBUG loadAddresses: DataObject address, clid = 1235574503, name = MuonEntryLayer
AthenaPoolAddre...  DEBUG loadAddresses: DataObject address, clid = 1235574503, name = MuonExitLayer
AthenaPoolAddre...  DEBUG loadAddresses: DataObject address, clid = 1312841250, name = LArCalibrationHitDeadMaterial
SecondaryEventS...  DEBUG EventSelectorAthenaPool::nextWithSkip
AthenaPoolAddre...  DEBUG Created dataHeader SecondaryEventSelector
AthenaPoolAddre...  DEBUG The current Event contains: 38 objects
AthenaPoolAddre...  DEBUG loadAddresses: DataObject address, clid = 2540, name = Bkg_PixelRDOs
AthenaPoolAddre...  DEBUG loadAddresses: DataObject address, clid = 2541, name = Bkg_SCT_RDOs
AthenaPoolAddre...  DEBUG loadAddresses: DataObject address, clid = 2542, name = Bkg_TRT_RDOs
AthenaPoolAddre...  DEBUG loadAddresses: DataObject address, clid = 2543, name = Bkg_BCM_SDO_Map
AthenaPoolAddre...  DEBUG loadAddresses: DataObject address, clid = 2543, name = Bkg_PixelSDO_Map
AthenaPoolAddre...  DEBUG loadAddresses: DataObject address, clid = 2543, name = Bkg_SCT_SDO_Map
AthenaPoolAddre...  DEBUG loadAddresses: DataObject address, clid = 2543, name = Bkg_TRT_SDO_Map
AthenaPoolAddre...  DEBUG loadAddresses: DataObject address, clid = 2590, name = Bkg_BCM_RDOs
AthenaPoolAddre...  DEBUG loadAddresses: DataObject address, clid = 2711, name = Bkg_LArDigitContainer_MC
AthenaPoolAddre...  DEBUG loadAddresses: DataObject address, clid = 2771, name = Bkg_LArTTL1EM
AthenaPoolAddre...  DEBUG loadAddresses: DataObject address, clid = 2771, name = Bkg_LArTTL1HAD
AthenaPoolAddre...  DEBUG loadAddresses: DataObject address, clid = 2925, name = Bkg_MuRcvDigitsCnt
AthenaPoolAddre...  DEBUG loadAddresses: DataObject address, clid = 2925, name = Bkg_TileDigitsCnt
AthenaPoolAddre...  DEBUG loadAddresses: DataObject address, clid = 2933, name = Bkg_TileTTL1Cnt
AthenaPoolAddre...  DEBUG loadAddresses: DataObject address, clid = 2933, name = Bkg_TileTTL1MBTS
AthenaPoolAddre...  DEBUG loadAddresses: DataObject address, clid = 2934, name = Bkg_TileL2Cnt
AthenaPoolAddre...  DEBUG loadAddresses: DataObject address, clid = 2954, name = Bkg_TileMuRcvCnt
AthenaPoolAddre...  DEBUG loadAddresses: DataObject address, clid = 4183, name = Bkg_CSCRDO
AthenaPoolAddre...  DEBUG loadAddresses: DataObject address, clid = 4186, name = Bkg_TGCRDO
AthenaPoolAddre...  DEBUG loadAddresses: DataObject address, clid = 4187, name = Bkg_MDTCSM
AthenaPoolAddre...  DEBUG loadAddresses: DataObject address, clid = 4190, name = Bkg_RPCPAD
AthenaPoolAddre...  DEBUG loadAddresses: DataObject address, clid = 133273, name = Bkg_TruthEvent
AthenaPoolAddre...  DEBUG loadAddresses: DataObject address, clid = 38853911, name = Bkg_EventInfoAux.
AthenaPoolAddre...  DEBUG loadAddresses: DataObject address, clid = 41658935, name = Bkg_MDT_SDO
AthenaPoolAddre...  DEBUG loadAddresses: DataObject address, clid = 41658935, name = Bkg_RPC_SDO
AthenaPoolAddre...  DEBUG loadAddresses: DataObject address, clid = 41658935, name = Bkg_TGC_SDO
AthenaPoolAddre...  DEBUG loadAddresses: DataObject address, clid = 45903698, name = Bkg_EventInfo
AthenaPoolAddre...  DEBUG loadAddresses: DataObject address, clid = 76321643, name = Bkg_EVNTtoHITS_timings
AthenaPoolAddre...  DEBUG loadAddresses: DataObject address, clid = 76321643, name = Bkg_HITStoRDO_timings
AthenaPoolAddre...  DEBUG loadAddresses: DataObject address, clid = 1095642046, name = Bkg_CSC_SDO
AthenaPoolAddre...  DEBUG loadAddresses: DataObject address, clid = 1235574503, name = Bkg_MuonEntryLayer
AthenaPoolAddre...  DEBUG loadAddresses: DataObject address, clid = 1244316195, name = Bkg_InTimeAntiKt4TruthJets
AthenaPoolAddre...  DEBUG loadAddresses: DataObject address, clid = 1244316195, name = Bkg_OutOfTimeAntiKt4TruthJets
AthenaPoolAddre...  DEBUG loadAddresses: DataObject address, clid = 1272974287, name = PileUpEventInfoAux.
AthenaPoolAddre...  DEBUG loadAddresses: DataObject address, clid = 1294631886, name = Bkg_InTimeAntiKt4TruthJetsAux.
AthenaPoolAddre...  DEBUG loadAddresses: DataObject address, clid = 1294631886, name = Bkg_OutOfTimeAntiKt4TruthJetsAux.
AthenaPoolAddre...  DEBUG loadAddresses: DataObject address, clid = 1320594112, name = PileUpEventInfo
AthenaPoolAddre...  DEBUG The current Event contains: 24 objects
AthenaPoolAddre...  DEBUG loadAddresses: DataObject address, clid = 2101, name = McEventInfo
AthenaPoolAddre...  DEBUG loadAddresses: DataObject address, clid = 2545, name = BCMHits
AthenaPoolAddre...  DEBUG loadAddresses: DataObject address, clid = 2545, name = BLMHits
AthenaPoolAddre...  DEBUG loadAddresses: DataObject address, clid = 2545, name = PixelHits
AthenaPoolAddre...  DEBUG loadAddresses: DataObject address, clid = 2545, name = SCT_Hits
AthenaPoolAddre...  DEBUG loadAddresses: DataObject address, clid = 2701, name = LArHitEMB
AthenaPoolAddre...  DEBUG loadAddresses: DataObject address, clid = 2701, name = LArHitEMEC
AthenaPoolAddre...  DEBUG loadAddresses: DataObject address, clid = 2701, name = LArHitFCAL
AthenaPoolAddre...  DEBUG loadAddresses: DataObject address, clid = 2701, name = LArHitHEC
AthenaPoolAddre...  DEBUG loadAddresses: DataObject address, clid = 2701, name = LArHitMiniFCAL
AthenaPoolAddre...  DEBUG loadAddresses: DataObject address, clid = 2960, name = MBTSHits
AthenaPoolAddre...  DEBUG loadAddresses: DataObject address, clid = 2960, name = TileHitVec
AthenaPoolAddre...  DEBUG loadAddresses: DataObject address, clid = 4051, name = RPC_Hits
AthenaPoolAddre...  DEBUG loadAddresses: DataObject address, clid = 4052, name = TGC_Hits
AthenaPoolAddre...  DEBUG loadAddresses: DataObject address, clid = 4053, name = CSC_Hits
AthenaPoolAddre...  DEBUG loadAddresses: DataObject address, clid = 4054, name = MDT_Hits
AthenaPoolAddre...  DEBUG loadAddresses: DataObject address, clid = 133273, name = TruthEvent
AthenaPoolAddre...  DEBUG loadAddresses: DataObject address, clid = 76321643, name = EVNTtoHITS_timings
AthenaPoolAddre...  DEBUG loadAddresses: DataObject address, clid = 947021836, name = TRTUncompressedHits
AthenaPoolAddre...  DEBUG loadAddresses: DataObject address, clid = 1235574503, name = CaloEntryLayer
AthenaPoolAddre...  DEBUG loadAddresses: DataObject address, clid = 1235574503, name = MuonEntryLayer
AthenaPoolAddre...  DEBUG loadAddresses: DataObject address, clid = 1235574503, name = MuonExitLayer
AthenaPoolAddre...  DEBUG loadAddresses: DataObject address, clid = 1312841250, name = LArCalibrationHitDeadMaterial
SecondaryEventS...  DEBUG EventSelectorAthenaPool::nextWithSkip
AthenaPoolAddre...  DEBUG Created dataHeader SecondaryEventSelector
AthenaPoolAddre...  DEBUG The current Event contains: 38 objects
AthenaPoolAddre...  DEBUG loadAddresses: DataObject address, clid = 2540, name = Bkg_PixelRDOs
AthenaPoolAddre...  DEBUG loadAddresses: DataObject address, clid = 2541, name = Bkg_SCT_RDOs
AthenaPoolAddre...  DEBUG loadAddresses: DataObject address, clid = 2542, name = Bkg_TRT_RDOs
AthenaPoolAddre...  DEBUG loadAddresses: DataObject address, clid = 2543, name = Bkg_BCM_SDO_Map
AthenaPoolAddre...  DEBUG loadAddresses: DataObject address, clid = 2543, name = Bkg_PixelSDO_Map
AthenaPoolAddre...  DEBUG loadAddresses: DataObject address, clid = 2543, name = Bkg_SCT_SDO_Map
AthenaPoolAddre...  DEBUG loadAddresses: DataObject address, clid = 2543, name = Bkg_TRT_SDO_Map
AthenaPoolAddre...  DEBUG loadAddresses: DataObject address, clid = 2590, name = Bkg_BCM_RDOs
AthenaPoolAddre...  DEBUG loadAddresses: DataObject address, clid = 2711, name = Bkg_LArDigitContainer_MC
AthenaPoolAddre...  DEBUG loadAddresses: DataObject address, clid = 2771, name = Bkg_LArTTL1EM
AthenaPoolAddre...  DEBUG loadAddresses: DataObject address, clid = 2771, name = Bkg_LArTTL1HAD
AthenaPoolAddre...  DEBUG loadAddresses: DataObject address, clid = 2925, name = Bkg_MuRcvDigitsCnt
AthenaPoolAddre...  DEBUG loadAddresses: DataObject address, clid = 2925, name = Bkg_TileDigitsCnt
AthenaPoolAddre...  DEBUG loadAddresses: DataObject address, clid = 2933, name = Bkg_TileTTL1Cnt
AthenaPoolAddre...  DEBUG loadAddresses: DataObject address, clid = 2933, name = Bkg_TileTTL1MBTS
AthenaPoolAddre...  DEBUG loadAddresses: DataObject address, clid = 2934, name = Bkg_TileL2Cnt
AthenaPoolAddre...  DEBUG loadAddresses: DataObject address, clid = 2954, name = Bkg_TileMuRcvCnt
AthenaPoolAddre...  DEBUG loadAddresses: DataObject address, clid = 4183, name = Bkg_CSCRDO
AthenaPoolAddre...  DEBUG loadAddresses: DataObject address, clid = 4186, name = Bkg_TGCRDO
AthenaPoolAddre...  DEBUG loadAddresses: DataObject address, clid = 4187, name = Bkg_MDTCSM
AthenaPoolAddre...  DEBUG loadAddresses: DataObject address, clid = 4190, name = Bkg_RPCPAD
AthenaPoolAddre...  DEBUG loadAddresses: DataObject address, clid = 133273, name = Bkg_TruthEvent
AthenaPoolAddre...  DEBUG loadAddresses: DataObject address, clid = 38853911, name = Bkg_EventInfoAux.
AthenaPoolAddre...  DEBUG loadAddresses: DataObject address, clid = 41658935, name = Bkg_MDT_SDO
AthenaPoolAddre...  DEBUG loadAddresses: DataObject address, clid = 41658935, name = Bkg_RPC_SDO
AthenaPoolAddre...  DEBUG loadAddresses: DataObject address, clid = 41658935, name = Bkg_TGC_SDO
AthenaPoolAddre...  DEBUG loadAddresses: DataObject address, clid = 45903698, name = Bkg_EventInfo
AthenaPoolAddre...  DEBUG loadAddresses: DataObject address, clid = 76321643, name = Bkg_EVNTtoHITS_timings
AthenaPoolAddre...  DEBUG loadAddresses: DataObject address, clid = 76321643, name = Bkg_HITStoRDO_timings
AthenaPoolAddre...  DEBUG loadAddresses: DataObject address, clid = 1095642046, name = Bkg_CSC_SDO
AthenaPoolAddre...  DEBUG loadAddresses: DataObject address, clid = 1235574503, name = Bkg_MuonEntryLayer
AthenaPoolAddre...  DEBUG loadAddresses: DataObject address, clid = 1244316195, name = Bkg_InTimeAntiKt4TruthJets
AthenaPoolAddre...  DEBUG loadAddresses: DataObject address, clid = 1244316195, name = Bkg_OutOfTimeAntiKt4TruthJets
AthenaPoolAddre...  DEBUG loadAddresses: DataObject address, clid = 1272974287, name = PileUpEventInfoAux.
AthenaPoolAddre...  DEBUG loadAddresses: DataObject address, clid = 1294631886, name = Bkg_InTimeAntiKt4TruthJetsAux.
AthenaPoolAddre...  DEBUG loadAddresses: DataObject address, clid = 1294631886, name = Bkg_OutOfTimeAntiKt4TruthJetsAux.
AthenaPoolAddre...  DEBUG loadAddresses: DataObject address, clid = 1320594112, name = PileUpEventInfo
AthenaPoolAddre...  DEBUG The current Event contains: 24 objects
AthenaPoolAddre...  DEBUG loadAddresses: DataObject address, clid = 2101, name = McEventInfo
AthenaPoolAddre...  DEBUG loadAddresses: DataObject address, clid = 2545, name = BCMHits
AthenaPoolAddre...  DEBUG loadAddresses: DataObject address, clid = 2545, name = BLMHits
AthenaPoolAddre...  DEBUG loadAddresses: DataObject address, clid = 2545, name = PixelHits
AthenaPoolAddre...  DEBUG loadAddresses: DataObject address, clid = 2545, name = SCT_Hits
AthenaPoolAddre...  DEBUG loadAddresses: DataObject address, clid = 2701, name = LArHitEMB
AthenaPoolAddre...  DEBUG loadAddresses: DataObject address, clid = 2701, name = LArHitEMEC
AthenaPoolAddre...  DEBUG loadAddresses: DataObject address, clid = 2701, name = LArHitFCAL
AthenaPoolAddre...  DEBUG loadAddresses: DataObject address, clid = 2701, name = LArHitHEC
AthenaPoolAddre...  DEBUG loadAddresses: DataObject address, clid = 2701, name = LArHitMiniFCAL
AthenaPoolAddre...  DEBUG loadAddresses: DataObject address, clid = 2960, name = MBTSHits
AthenaPoolAddre...  DEBUG loadAddresses: DataObject address, clid = 2960, name = TileHitVec
AthenaPoolAddre...  DEBUG loadAddresses: DataObject address, clid = 4051, name = RPC_Hits
AthenaPoolAddre...  DEBUG loadAddresses: DataObject address, clid = 4052, name = TGC_Hits
AthenaPoolAddre...  DEBUG loadAddresses: DataObject address, clid = 4053, name = CSC_Hits
AthenaPoolAddre...  DEBUG loadAddresses: DataObject address, clid = 4054, name = MDT_Hits
AthenaPoolAddre...  DEBUG loadAddresses: DataObject address, clid = 133273, name = TruthEvent
AthenaPoolAddre...  DEBUG loadAddresses: DataObject address, clid = 76321643, name = EVNTtoHITS_timings
AthenaPoolAddre...  DEBUG loadAddresses: DataObject address, clid = 947021836, name = TRTUncompressedHits
AthenaPoolAddre...  DEBUG loadAddresses: DataObject address, clid = 1235574503, name = CaloEntryLayer
AthenaPoolAddre...  DEBUG loadAddresses: DataObject address, clid = 1235574503, name = MuonEntryLayer
AthenaPoolAddre...  DEBUG loadAddresses: DataObject address, clid = 1235574503, name = MuonExitLayer
AthenaPoolAddre...  DEBUG loadAddresses: DataObject address, clid = 1312841250, name = LArCalibrationHitDeadMaterial
SecondaryEventS...  DEBUG EventSelectorAthenaPool::nextWithSkip
AthenaPoolAddre...  DEBUG Created dataHeader SecondaryEventSelector
AthenaPoolAddre...  DEBUG The current Event contains: 38 objects
AthenaPoolAddre...  DEBUG loadAddresses: DataObject address, clid = 2540, name = Bkg_PixelRDOs
AthenaPoolAddre...  DEBUG loadAddresses: DataObject address, clid = 2541, name = Bkg_SCT_RDOs
AthenaPoolAddre...  DEBUG loadAddresses: DataObject address, clid = 2542, name = Bkg_TRT_RDOs
AthenaPoolAddre...  DEBUG loadAddresses: DataObject address, clid = 2543, name = Bkg_BCM_SDO_Map
AthenaPoolAddre...  DEBUG loadAddresses: DataObject address, clid = 2543, name = Bkg_PixelSDO_Map
AthenaPoolAddre...  DEBUG loadAddresses: DataObject address, clid = 2543, name = Bkg_SCT_SDO_Map
AthenaPoolAddre...  DEBUG loadAddresses: DataObject address, clid = 2543, name = Bkg_TRT_SDO_Map
AthenaPoolAddre...  DEBUG loadAddresses: DataObject address, clid = 2590, name = Bkg_BCM_RDOs
AthenaPoolAddre...  DEBUG loadAddresses: DataObject address, clid = 2711, name = Bkg_LArDigitContainer_MC
AthenaPoolAddre...  DEBUG loadAddresses: DataObject address, clid = 2771, name = Bkg_LArTTL1EM
AthenaPoolAddre...  DEBUG loadAddresses: DataObject address, clid = 2771, name = Bkg_LArTTL1HAD
AthenaPoolAddre...  DEBUG loadAddresses: DataObject address, clid = 2925, name = Bkg_MuRcvDigitsCnt
AthenaPoolAddre...  DEBUG loadAddresses: DataObject address, clid = 2925, name = Bkg_TileDigitsCnt
AthenaPoolAddre...  DEBUG loadAddresses: DataObject address, clid = 2933, name = Bkg_TileTTL1Cnt
AthenaPoolAddre...  DEBUG loadAddresses: DataObject address, clid = 2933, name = Bkg_TileTTL1MBTS
AthenaPoolAddre...  DEBUG loadAddresses: DataObject address, clid = 2934, name = Bkg_TileL2Cnt
AthenaPoolAddre...  DEBUG loadAddresses: DataObject address, clid = 2954, name = Bkg_TileMuRcvCnt
AthenaPoolAddre...  DEBUG loadAddresses: DataObject address, clid = 4183, name = Bkg_CSCRDO
AthenaPoolAddre...  DEBUG loadAddresses: DataObject address, clid = 4186, name = Bkg_TGCRDO
AthenaPoolAddre...  DEBUG loadAddresses: DataObject address, clid = 4187, name = Bkg_MDTCSM
AthenaPoolAddre...  DEBUG loadAddresses: DataObject address, clid = 4190, name = Bkg_RPCPAD
AthenaPoolAddre...  DEBUG loadAddresses: DataObject address, clid = 133273, name = Bkg_TruthEvent
AthenaPoolAddre...  DEBUG loadAddresses: DataObject address, clid = 38853911, name = Bkg_EventInfoAux.
AthenaPoolAddre...  DEBUG loadAddresses: DataObject address, clid = 41658935, name = Bkg_MDT_SDO
AthenaPoolAddre...  DEBUG loadAddresses: DataObject address, clid = 41658935, name = Bkg_RPC_SDO
AthenaPoolAddre...  DEBUG loadAddresses: DataObject address, clid = 41658935, name = Bkg_TGC_SDO
AthenaPoolAddre...  DEBUG loadAddresses: DataObject address, clid = 45903698, name = Bkg_EventInfo
AthenaPoolAddre...  DEBUG loadAddresses: DataObject address, clid = 76321643, name = Bkg_EVNTtoHITS_timings
AthenaPoolAddre...  DEBUG loadAddresses: DataObject address, clid = 76321643, name = Bkg_HITStoRDO_timings
AthenaPoolAddre...  DEBUG loadAddresses: DataObject address, clid = 1095642046, name = Bkg_CSC_SDO
AthenaPoolAddre...  DEBUG loadAddresses: DataObject address, clid = 1235574503, name = Bkg_MuonEntryLayer
AthenaPoolAddre...  DEBUG loadAddresses: DataObject address, clid = 1244316195, name = Bkg_InTimeAntiKt4TruthJets
AthenaPoolAddre...  DEBUG loadAddresses: DataObject address, clid = 1244316195, name = Bkg_OutOfTimeAntiKt4TruthJets
AthenaPoolAddre...  DEBUG loadAddresses: DataObject address, clid = 1272974287, name = PileUpEventInfoAux.
AthenaPoolAddre...  DEBUG loadAddresses: DataObject address, clid = 1294631886, name = Bkg_InTimeAntiKt4TruthJetsAux.
AthenaPoolAddre...  DEBUG loadAddresses: DataObject address, clid = 1294631886, name = Bkg_OutOfTimeAntiKt4TruthJetsAux.
AthenaPoolAddre...  DEBUG loadAddresses: DataObject address, clid = 1320594112, name = PileUpEventInfo
AthenaPoolAddre...  DEBUG The current Event contains: 24 objects
AthenaPoolAddre...  DEBUG loadAddresses: DataObject address, clid = 2101, name = McEventInfo
AthenaPoolAddre...  DEBUG loadAddresses: DataObject address, clid = 2545, name = BCMHits
AthenaPoolAddre...  DEBUG loadAddresses: DataObject address, clid = 2545, name = BLMHits
AthenaPoolAddre...  DEBUG loadAddresses: DataObject address, clid = 2545, name = PixelHits
AthenaPoolAddre...  DEBUG loadAddresses: DataObject address, clid = 2545, name = SCT_Hits
AthenaPoolAddre...  DEBUG loadAddresses: DataObject address, clid = 2701, name = LArHitEMB
AthenaPoolAddre...  DEBUG loadAddresses: DataObject address, clid = 2701, name = LArHitEMEC
AthenaPoolAddre...  DEBUG loadAddresses: DataObject address, clid = 2701, name = LArHitFCAL
AthenaPoolAddre...  DEBUG loadAddresses: DataObject address, clid = 2701, name = LArHitHEC
AthenaPoolAddre...  DEBUG loadAddresses: DataObject address, clid = 2701, name = LArHitMiniFCAL
AthenaPoolAddre...  DEBUG loadAddresses: DataObject address, clid = 2960, name = MBTSHits
AthenaPoolAddre...  DEBUG loadAddresses: DataObject address, clid = 2960, name = TileHitVec
AthenaPoolAddre...  DEBUG loadAddresses: DataObject address, clid = 4051, name = RPC_Hits
AthenaPoolAddre...  DEBUG loadAddresses: DataObject address, clid = 4052, name = TGC_Hits
AthenaPoolAddre...  DEBUG loadAddresses: DataObject address, clid = 4053, name = CSC_Hits
AthenaPoolAddre...  DEBUG loadAddresses: DataObject address, clid = 4054, name = MDT_Hits
AthenaPoolAddre...  DEBUG loadAddresses: DataObject address, clid = 133273, name = TruthEvent
AthenaPoolAddre...  DEBUG loadAddresses: DataObject address, clid = 76321643, name = EVNTtoHITS_timings
AthenaPoolAddre...  DEBUG loadAddresses: DataObject address, clid = 947021836, name = TRTUncompressedHits
AthenaPoolAddre...  DEBUG loadAddresses: DataObject address, clid = 1235574503, name = CaloEntryLayer
AthenaPoolAddre...  DEBUG loadAddresses: DataObject address, clid = 1235574503, name = MuonEntryLayer
AthenaPoolAddre...  DEBUG loadAddresses: DataObject address, clid = 1235574503, name = MuonExitLayer
AthenaPoolAddre...  DEBUG loadAddresses: DataObject address, clid = 1312841250, name = LArCalibrationHitDeadMaterial
SecondaryEventS...  DEBUG EventSelectorAthenaPool::nextWithSkip
AthenaPoolAddre...  DEBUG Created dataHeader SecondaryEventSelector
AthenaPoolAddre...  DEBUG The current Event contains: 38 objects
AthenaPoolAddre...  DEBUG loadAddresses: DataObject address, clid = 2540, name = Bkg_PixelRDOs
AthenaPoolAddre...  DEBUG loadAddresses: DataObject address, clid = 2541, name = Bkg_SCT_RDOs
AthenaPoolAddre...  DEBUG loadAddresses: DataObject address, clid = 2542, name = Bkg_TRT_RDOs
AthenaPoolAddre...  DEBUG loadAddresses: DataObject address, clid = 2543, name = Bkg_BCM_SDO_Map
AthenaPoolAddre...  DEBUG loadAddresses: DataObject address, clid = 2543, name = Bkg_PixelSDO_Map
AthenaPoolAddre...  DEBUG loadAddresses: DataObject address, clid = 2543, name = Bkg_SCT_SDO_Map
AthenaPoolAddre...  DEBUG loadAddresses: DataObject address, clid = 2543, name = Bkg_TRT_SDO_Map
AthenaPoolAddre...  DEBUG loadAddresses: DataObject address, clid = 2590, name = Bkg_BCM_RDOs
AthenaPoolAddre...  DEBUG loadAddresses: DataObject address, clid = 2711, name = Bkg_LArDigitContainer_MC
AthenaPoolAddre...  DEBUG loadAddresses: DataObject address, clid = 2771, name = Bkg_LArTTL1EM
AthenaPoolAddre...  DEBUG loadAddresses: DataObject address, clid = 2771, name = Bkg_LArTTL1HAD
AthenaPoolAddre...  DEBUG loadAddresses: DataObject address, clid = 2925, name = Bkg_MuRcvDigitsCnt
AthenaPoolAddre...  DEBUG loadAddresses: DataObject address, clid = 2925, name = Bkg_TileDigitsCnt
AthenaPoolAddre...  DEBUG loadAddresses: DataObject address, clid = 2933, name = Bkg_TileTTL1Cnt
AthenaPoolAddre...  DEBUG loadAddresses: DataObject address, clid = 2933, name = Bkg_TileTTL1MBTS
AthenaPoolAddre...  DEBUG loadAddresses: DataObject address, clid = 2934, name = Bkg_TileL2Cnt
AthenaPoolAddre...  DEBUG loadAddresses: DataObject address, clid = 2954, name = Bkg_TileMuRcvCnt
AthenaPoolAddre...  DEBUG loadAddresses: DataObject address, clid = 4183, name = Bkg_CSCRDO
AthenaPoolAddre...  DEBUG loadAddresses: DataObject address, clid = 4186, name = Bkg_TGCRDO
AthenaPoolAddre...  DEBUG loadAddresses: DataObject address, clid = 4187, name = Bkg_MDTCSM
AthenaPoolAddre...  DEBUG loadAddresses: DataObject address, clid = 4190, name = Bkg_RPCPAD
AthenaPoolAddre...  DEBUG loadAddresses: DataObject address, clid = 133273, name = Bkg_TruthEvent
AthenaPoolAddre...  DEBUG loadAddresses: DataObject address, clid = 38853911, name = Bkg_EventInfoAux.
AthenaPoolAddre...  DEBUG loadAddresses: DataObject address, clid = 41658935, name = Bkg_MDT_SDO
AthenaPoolAddre...  DEBUG loadAddresses: DataObject address, clid = 41658935, name = Bkg_RPC_SDO
AthenaPoolAddre...  DEBUG loadAddresses: DataObject address, clid = 41658935, name = Bkg_TGC_SDO
AthenaPoolAddre...  DEBUG loadAddresses: DataObject address, clid = 45903698, name = Bkg_EventInfo
AthenaPoolAddre...  DEBUG loadAddresses: DataObject address, clid = 76321643, name = Bkg_EVNTtoHITS_timings
AthenaPoolAddre...  DEBUG loadAddresses: DataObject address, clid = 76321643, name = Bkg_HITStoRDO_timings
AthenaPoolAddre...  DEBUG loadAddresses: DataObject address, clid = 1095642046, name = Bkg_CSC_SDO
AthenaPoolAddre...  DEBUG loadAddresses: DataObject address, clid = 1235574503, name = Bkg_MuonEntryLayer
AthenaPoolAddre...  DEBUG loadAddresses: DataObject address, clid = 1244316195, name = Bkg_InTimeAntiKt4TruthJets
AthenaPoolAddre...  DEBUG loadAddresses: DataObject address, clid = 1244316195, name = Bkg_OutOfTimeAntiKt4TruthJets
AthenaPoolAddre...  DEBUG loadAddresses: DataObject address, clid = 1272974287, name = PileUpEventInfoAux.
AthenaPoolAddre...  DEBUG loadAddresses: DataObject address, clid = 1294631886, name = Bkg_InTimeAntiKt4TruthJetsAux.
AthenaPoolAddre...  DEBUG loadAddresses: DataObject address, clid = 1294631886, name = Bkg_OutOfTimeAntiKt4TruthJetsAux.
AthenaPoolAddre...  DEBUG loadAddresses: DataObject address, clid = 1320594112, name = PileUpEventInfo
AthenaPoolAddre...  DEBUG The current Event contains: 24 objects
AthenaPoolAddre...  DEBUG loadAddresses: DataObject address, clid = 2101, name = McEventInfo
AthenaPoolAddre...  DEBUG loadAddresses: DataObject address, clid = 2545, name = BCMHits
AthenaPoolAddre...  DEBUG loadAddresses: DataObject address, clid = 2545, name = BLMHits
AthenaPoolAddre...  DEBUG loadAddresses: DataObject address, clid = 2545, name = PixelHits
AthenaPoolAddre...  DEBUG loadAddresses: DataObject address, clid = 2545, name = SCT_Hits
AthenaPoolAddre...  DEBUG loadAddresses: DataObject address, clid = 2701, name = LArHitEMB
AthenaPoolAddre...  DEBUG loadAddresses: DataObject address, clid = 2701, name = LArHitEMEC
AthenaPoolAddre...  DEBUG loadAddresses: DataObject address, clid = 2701, name = LArHitFCAL
AthenaPoolAddre...  DEBUG loadAddresses: DataObject address, clid = 2701, name = LArHitHEC
AthenaPoolAddre...  DEBUG loadAddresses: DataObject address, clid = 2701, name = LArHitMiniFCAL
AthenaPoolAddre...  DEBUG loadAddresses: DataObject address, clid = 2960, name = MBTSHits
AthenaPoolAddre...  DEBUG loadAddresses: DataObject address, clid = 2960, name = TileHitVec
AthenaPoolAddre...  DEBUG loadAddresses: DataObject address, clid = 4051, name = RPC_Hits
AthenaPoolAddre...  DEBUG loadAddresses: DataObject address, clid = 4052, name = TGC_Hits
AthenaPoolAddre...  DEBUG loadAddresses: DataObject address, clid = 4053, name = CSC_Hits
AthenaPoolAddre...  DEBUG loadAddresses: DataObject address, clid = 4054, name = MDT_Hits
AthenaPoolAddre...  DEBUG loadAddresses: DataObject address, clid = 133273, name = TruthEvent
AthenaPoolAddre...  DEBUG loadAddresses: DataObject address, clid = 76321643, name = EVNTtoHITS_timings
AthenaPoolAddre...  DEBUG loadAddresses: DataObject address, clid = 947021836, name = TRTUncompressedHits
AthenaPoolAddre...  DEBUG loadAddresses: DataObject address, clid = 1235574503, name = CaloEntryLayer
AthenaPoolAddre...  DEBUG loadAddresses: DataObject address, clid = 1235574503, name = MuonEntryLayer
AthenaPoolAddre...  DEBUG loadAddresses: DataObject address, clid = 1235574503, name = MuonExitLayer
AthenaPoolAddre...  DEBUG loadAddresses: DataObject address, clid = 1312841250, name = LArCalibrationHitDeadMaterial
SecondaryEventS...  DEBUG EventSelectorAthenaPool::nextWithSkip
AthenaPoolAddre...  DEBUG Created dataHeader SecondaryEventSelector
AthenaPoolAddre...  DEBUG The current Event contains: 38 objects
AthenaPoolAddre...  DEBUG loadAddresses: DataObject address, clid = 2540, name = Bkg_PixelRDOs
AthenaPoolAddre...  DEBUG loadAddresses: DataObject address, clid = 2541, name = Bkg_SCT_RDOs
AthenaPoolAddre...  DEBUG loadAddresses: DataObject address, clid = 2542, name = Bkg_TRT_RDOs
AthenaPoolAddre...  DEBUG loadAddresses: DataObject address, clid = 2543, name = Bkg_BCM_SDO_Map
AthenaPoolAddre...  DEBUG loadAddresses: DataObject address, clid = 2543, name = Bkg_PixelSDO_Map
AthenaPoolAddre...  DEBUG loadAddresses: DataObject address, clid = 2543, name = Bkg_SCT_SDO_Map
AthenaPoolAddre...  DEBUG loadAddresses: DataObject address, clid = 2543, name = Bkg_TRT_SDO_Map
AthenaPoolAddre...  DEBUG loadAddresses: DataObject address, clid = 2590, name = Bkg_BCM_RDOs
AthenaPoolAddre...  DEBUG loadAddresses: DataObject address, clid = 2711, name = Bkg_LArDigitContainer_MC
AthenaPoolAddre...  DEBUG loadAddresses: DataObject address, clid = 2771, name = Bkg_LArTTL1EM
AthenaPoolAddre...  DEBUG loadAddresses: DataObject address, clid = 2771, name = Bkg_LArTTL1HAD
AthenaPoolAddre...  DEBUG loadAddresses: DataObject address, clid = 2925, name = Bkg_MuRcvDigitsCnt
AthenaPoolAddre...  DEBUG loadAddresses: DataObject address, clid = 2925, name = Bkg_TileDigitsCnt
AthenaPoolAddre...  DEBUG loadAddresses: DataObject address, clid = 2933, name = Bkg_TileTTL1Cnt
AthenaPoolAddre...  DEBUG loadAddresses: DataObject address, clid = 2933, name = Bkg_TileTTL1MBTS
AthenaPoolAddre...  DEBUG loadAddresses: DataObject address, clid = 2934, name = Bkg_TileL2Cnt
AthenaPoolAddre...  DEBUG loadAddresses: DataObject address, clid = 2954, name = Bkg_TileMuRcvCnt
AthenaPoolAddre...  DEBUG loadAddresses: DataObject address, clid = 4183, name = Bkg_CSCRDO
AthenaPoolAddre...  DEBUG loadAddresses: DataObject address, clid = 4186, name = Bkg_TGCRDO
AthenaPoolAddre...  DEBUG loadAddresses: DataObject address, clid = 4187, name = Bkg_MDTCSM
AthenaPoolAddre...  DEBUG loadAddresses: DataObject address, clid = 4190, name = Bkg_RPCPAD
AthenaPoolAddre...  DEBUG loadAddresses: DataObject address, clid = 133273, name = Bkg_TruthEvent
AthenaPoolAddre...  DEBUG loadAddresses: DataObject address, clid = 38853911, name = Bkg_EventInfoAux.
AthenaPoolAddre...  DEBUG loadAddresses: DataObject address, clid = 41658935, name = Bkg_MDT_SDO
AthenaPoolAddre...  DEBUG loadAddresses: DataObject address, clid = 41658935, name = Bkg_RPC_SDO
AthenaPoolAddre...  DEBUG loadAddresses: DataObject address, clid = 41658935, name = Bkg_TGC_SDO
AthenaPoolAddre...  DEBUG loadAddresses: DataObject address, clid = 45903698, name = Bkg_EventInfo
AthenaPoolAddre...  DEBUG loadAddresses: DataObject address, clid = 76321643, name = Bkg_EVNTtoHITS_timings
AthenaPoolAddre...  DEBUG loadAddresses: DataObject address, clid = 76321643, name = Bkg_HITStoRDO_timings
AthenaPoolAddre...  DEBUG loadAddresses: DataObject address, clid = 1095642046, name = Bkg_CSC_SDO
AthenaPoolAddre...  DEBUG loadAddresses: DataObject address, clid = 1235574503, name = Bkg_MuonEntryLayer
AthenaPoolAddre...  DEBUG loadAddresses: DataObject address, clid = 1244316195, name = Bkg_InTimeAntiKt4TruthJets
AthenaPoolAddre...  DEBUG loadAddresses: DataObject address, clid = 1244316195, name = Bkg_OutOfTimeAntiKt4TruthJets
AthenaPoolAddre...  DEBUG loadAddresses: DataObject address, clid = 1272974287, name = PileUpEventInfoAux.
AthenaPoolAddre...  DEBUG loadAddresses: DataObject address, clid = 1294631886, name = Bkg_InTimeAntiKt4TruthJetsAux.
AthenaPoolAddre...  DEBUG loadAddresses: DataObject address, clid = 1294631886, name = Bkg_OutOfTimeAntiKt4TruthJetsAux.
AthenaPoolAddre...  DEBUG loadAddresses: DataObject address, clid = 1320594112, name = PileUpEventInfo
AthenaPoolAddre...  DEBUG The current Event contains: 24 objects
AthenaPoolAddre...  DEBUG loadAddresses: DataObject address, clid = 2101, name = McEventInfo
AthenaPoolAddre...  DEBUG loadAddresses: DataObject address, clid = 2545, name = BCMHits
AthenaPoolAddre...  DEBUG loadAddresses: DataObject address, clid = 2545, name = BLMHits
AthenaPoolAddre...  DEBUG loadAddresses: DataObject address, clid = 2545, name = PixelHits
AthenaPoolAddre...  DEBUG loadAddresses: DataObject address, clid = 2545, name = SCT_Hits
AthenaPoolAddre...  DEBUG loadAddresses: DataObject address, clid = 2701, name = LArHitEMB
AthenaPoolAddre...  DEBUG loadAddresses: DataObject address, clid = 2701, name = LArHitEMEC
AthenaPoolAddre...  DEBUG loadAddresses: DataObject address, clid = 2701, name = LArHitFCAL
AthenaPoolAddre...  DEBUG loadAddresses: DataObject address, clid = 2701, name = LArHitHEC
AthenaPoolAddre...  DEBUG loadAddresses: DataObject address, clid = 2701, name = LArHitMiniFCAL
AthenaPoolAddre...  DEBUG loadAddresses: DataObject address, clid = 2960, name = MBTSHits
AthenaPoolAddre...  DEBUG loadAddresses: DataObject address, clid = 2960, name = TileHitVec
AthenaPoolAddre...  DEBUG loadAddresses: DataObject address, clid = 4051, name = RPC_Hits
AthenaPoolAddre...  DEBUG loadAddresses: DataObject address, clid = 4052, name = TGC_Hits
AthenaPoolAddre...  DEBUG loadAddresses: DataObject address, clid = 4053, name = CSC_Hits
AthenaPoolAddre...  DEBUG loadAddresses: DataObject address, clid = 4054, name = MDT_Hits
AthenaPoolAddre...  DEBUG loadAddresses: DataObject address, clid = 133273, name = TruthEvent
AthenaPoolAddre...  DEBUG loadAddresses: DataObject address, clid = 76321643, name = EVNTtoHITS_timings
AthenaPoolAddre...  DEBUG loadAddresses: DataObject address, clid = 947021836, name = TRTUncompressedHits
AthenaPoolAddre...  DEBUG loadAddresses: DataObject address, clid = 1235574503, name = CaloEntryLayer
AthenaPoolAddre...  DEBUG loadAddresses: DataObject address, clid = 1235574503, name = MuonEntryLayer
AthenaPoolAddre...  DEBUG loadAddresses: DataObject address, clid = 1235574503, name = MuonExitLayer
AthenaPoolAddre...  DEBUG loadAddresses: DataObject address, clid = 1312841250, name = LArCalibrationHitDeadMaterial
SecondaryEventS...  DEBUG EventSelectorAthenaPool::nextWithSkip
AthenaPoolAddre...  DEBUG Created dataHeader SecondaryEventSelector
AthenaPoolAddre...  DEBUG The current Event contains: 38 objects
AthenaPoolAddre...  DEBUG loadAddresses: DataObject address, clid = 2540, name = Bkg_PixelRDOs
AthenaPoolAddre...  DEBUG loadAddresses: DataObject address, clid = 2541, name = Bkg_SCT_RDOs
AthenaPoolAddre...  DEBUG loadAddresses: DataObject address, clid = 2542, name = Bkg_TRT_RDOs
AthenaPoolAddre...  DEBUG loadAddresses: DataObject address, clid = 2543, name = Bkg_BCM_SDO_Map
AthenaPoolAddre...  DEBUG loadAddresses: DataObject address, clid = 2543, name = Bkg_PixelSDO_Map
AthenaPoolAddre...  DEBUG loadAddresses: DataObject address, clid = 2543, name = Bkg_SCT_SDO_Map
AthenaPoolAddre...  DEBUG loadAddresses: DataObject address, clid = 2543, name = Bkg_TRT_SDO_Map
AthenaPoolAddre...  DEBUG loadAddresses: DataObject address, clid = 2590, name = Bkg_BCM_RDOs
AthenaPoolAddre...  DEBUG loadAddresses: DataObject address, clid = 2711, name = Bkg_LArDigitContainer_MC
AthenaPoolAddre...  DEBUG loadAddresses: DataObject address, clid = 2771, name = Bkg_LArTTL1EM
AthenaPoolAddre...  DEBUG loadAddresses: DataObject address, clid = 2771, name = Bkg_LArTTL1HAD
AthenaPoolAddre...  DEBUG loadAddresses: DataObject address, clid = 2925, name = Bkg_MuRcvDigitsCnt
AthenaPoolAddre...  DEBUG loadAddresses: DataObject address, clid = 2925, name = Bkg_TileDigitsCnt
AthenaPoolAddre...  DEBUG loadAddresses: DataObject address, clid = 2933, name = Bkg_TileTTL1Cnt
AthenaPoolAddre...  DEBUG loadAddresses: DataObject address, clid = 2933, name = Bkg_TileTTL1MBTS
AthenaPoolAddre...  DEBUG loadAddresses: DataObject address, clid = 2934, name = Bkg_TileL2Cnt
AthenaPoolAddre...  DEBUG loadAddresses: DataObject address, clid = 2954, name = Bkg_TileMuRcvCnt
AthenaPoolAddre...  DEBUG loadAddresses: DataObject address, clid = 4183, name = Bkg_CSCRDO
AthenaPoolAddre...  DEBUG loadAddresses: DataObject address, clid = 4186, name = Bkg_TGCRDO
AthenaPoolAddre...  DEBUG loadAddresses: DataObject address, clid = 4187, name = Bkg_MDTCSM
AthenaPoolAddre...  DEBUG loadAddresses: DataObject address, clid = 4190, name = Bkg_RPCPAD
AthenaPoolAddre...  DEBUG loadAddresses: DataObject address, clid = 133273, name = Bkg_TruthEvent
AthenaPoolAddre...  DEBUG loadAddresses: DataObject address, clid = 38853911, name = Bkg_EventInfoAux.
AthenaPoolAddre...  DEBUG loadAddresses: DataObject address, clid = 41658935, name = Bkg_MDT_SDO
AthenaPoolAddre...  DEBUG loadAddresses: DataObject address, clid = 41658935, name = Bkg_RPC_SDO
AthenaPoolAddre...  DEBUG loadAddresses: DataObject address, clid = 41658935, name = Bkg_TGC_SDO
AthenaPoolAddre...  DEBUG loadAddresses: DataObject address, clid = 45903698, name = Bkg_EventInfo
AthenaPoolAddre...  DEBUG loadAddresses: DataObject address, clid = 76321643, name = Bkg_EVNTtoHITS_timings
AthenaPoolAddre...  DEBUG loadAddresses: DataObject address, clid = 76321643, name = Bkg_HITStoRDO_timings
AthenaPoolAddre...  DEBUG loadAddresses: DataObject address, clid = 1095642046, name = Bkg_CSC_SDO
AthenaPoolAddre...  DEBUG loadAddresses: DataObject address, clid = 1235574503, name = Bkg_MuonEntryLayer
AthenaPoolAddre...  DEBUG loadAddresses: DataObject address, clid = 1244316195, name = Bkg_InTimeAntiKt4TruthJets
AthenaPoolAddre...  DEBUG loadAddresses: DataObject address, clid = 1244316195, name = Bkg_OutOfTimeAntiKt4TruthJets
AthenaPoolAddre...  DEBUG loadAddresses: DataObject address, clid = 1272974287, name = PileUpEventInfoAux.
AthenaPoolAddre...  DEBUG loadAddresses: DataObject address, clid = 1294631886, name = Bkg_InTimeAntiKt4TruthJetsAux.
AthenaPoolAddre...  DEBUG loadAddresses: DataObject address, clid = 1294631886, name = Bkg_OutOfTimeAntiKt4TruthJetsAux.
AthenaPoolAddre...  DEBUG loadAddresses: DataObject address, clid = 1320594112, name = PileUpEventInfo
AthenaPoolAddre...  DEBUG The current Event contains: 24 objects
AthenaPoolAddre...  DEBUG loadAddresses: DataObject address, clid = 2101, name = McEventInfo
AthenaPoolAddre...  DEBUG loadAddresses: DataObject address, clid = 2545, name = BCMHits
AthenaPoolAddre...  DEBUG loadAddresses: DataObject address, clid = 2545, name = BLMHits
AthenaPoolAddre...  DEBUG loadAddresses: DataObject address, clid = 2545, name = PixelHits
AthenaPoolAddre...  DEBUG loadAddresses: DataObject address, clid = 2545, name = SCT_Hits
AthenaPoolAddre...  DEBUG loadAddresses: DataObject address, clid = 2701, name = LArHitEMB
AthenaPoolAddre...  DEBUG loadAddresses: DataObject address, clid = 2701, name = LArHitEMEC
AthenaPoolAddre...  DEBUG loadAddresses: DataObject address, clid = 2701, name = LArHitFCAL
AthenaPoolAddre...  DEBUG loadAddresses: DataObject address, clid = 2701, name = LArHitHEC
AthenaPoolAddre...  DEBUG loadAddresses: DataObject address, clid = 2701, name = LArHitMiniFCAL
AthenaPoolAddre...  DEBUG loadAddresses: DataObject address, clid = 2960, name = MBTSHits
AthenaPoolAddre...  DEBUG loadAddresses: DataObject address, clid = 2960, name = TileHitVec
AthenaPoolAddre...  DEBUG loadAddresses: DataObject address, clid = 4051, name = RPC_Hits
AthenaPoolAddre...  DEBUG loadAddresses: DataObject address, clid = 4052, name = TGC_Hits
AthenaPoolAddre...  DEBUG loadAddresses: DataObject address, clid = 4053, name = CSC_Hits
AthenaPoolAddre...  DEBUG loadAddresses: DataObject address, clid = 4054, name = MDT_Hits
AthenaPoolAddre...  DEBUG loadAddresses: DataObject address, clid = 133273, name = TruthEvent
AthenaPoolAddre...  DEBUG loadAddresses: DataObject address, clid = 76321643, name = EVNTtoHITS_timings
AthenaPoolAddre...  DEBUG loadAddresses: DataObject address, clid = 947021836, name = TRTUncompressedHits
AthenaPoolAddre...  DEBUG loadAddresses: DataObject address, clid = 1235574503, name = CaloEntryLayer
AthenaPoolAddre...  DEBUG loadAddresses: DataObject address, clid = 1235574503, name = MuonEntryLayer
AthenaPoolAddre...  DEBUG loadAddresses: DataObject address, clid = 1235574503, name = MuonExitLayer
AthenaPoolAddre...  DEBUG loadAddresses: DataObject address, clid = 1312841250, name = LArCalibrationHitDeadMaterial
SecondaryEventS...  DEBUG EventSelectorAthenaPool::nextWithSkip
AthenaPoolAddre...  DEBUG Created dataHeader SecondaryEventSelector
AthenaPoolAddre...  DEBUG The current Event contains: 38 objects
AthenaPoolAddre...  DEBUG loadAddresses: DataObject address, clid = 2540, name = Bkg_PixelRDOs
AthenaPoolAddre...  DEBUG loadAddresses: DataObject address, clid = 2541, name = Bkg_SCT_RDOs
AthenaPoolAddre...  DEBUG loadAddresses: DataObject address, clid = 2542, name = Bkg_TRT_RDOs
AthenaPoolAddre...  DEBUG loadAddresses: DataObject address, clid = 2543, name = Bkg_BCM_SDO_Map
AthenaPoolAddre...  DEBUG loadAddresses: DataObject address, clid = 2543, name = Bkg_PixelSDO_Map
AthenaPoolAddre...  DEBUG loadAddresses: DataObject address, clid = 2543, name = Bkg_SCT_SDO_Map
AthenaPoolAddre...  DEBUG loadAddresses: DataObject address, clid = 2543, name = Bkg_TRT_SDO_Map
AthenaPoolAddre...  DEBUG loadAddresses: DataObject address, clid = 2590, name = Bkg_BCM_RDOs
AthenaPoolAddre...  DEBUG loadAddresses: DataObject address, clid = 2711, name = Bkg_LArDigitContainer_MC
AthenaPoolAddre...  DEBUG loadAddresses: DataObject address, clid = 2771, name = Bkg_LArTTL1EM
AthenaPoolAddre...  DEBUG loadAddresses: DataObject address, clid = 2771, name = Bkg_LArTTL1HAD
AthenaPoolAddre...  DEBUG loadAddresses: DataObject address, clid = 2925, name = Bkg_MuRcvDigitsCnt
AthenaPoolAddre...  DEBUG loadAddresses: DataObject address, clid = 2925, name = Bkg_TileDigitsCnt
AthenaPoolAddre...  DEBUG loadAddresses: DataObject address, clid = 2933, name = Bkg_TileTTL1Cnt
AthenaPoolAddre...  DEBUG loadAddresses: DataObject address, clid = 2933, name = Bkg_TileTTL1MBTS
AthenaPoolAddre...  DEBUG loadAddresses: DataObject address, clid = 2934, name = Bkg_TileL2Cnt
AthenaPoolAddre...  DEBUG loadAddresses: DataObject address, clid = 2954, name = Bkg_TileMuRcvCnt
AthenaPoolAddre...  DEBUG loadAddresses: DataObject address, clid = 4183, name = Bkg_CSCRDO
AthenaPoolAddre...  DEBUG loadAddresses: DataObject address, clid = 4186, name = Bkg_TGCRDO
AthenaPoolAddre...  DEBUG loadAddresses: DataObject address, clid = 4187, name = Bkg_MDTCSM
AthenaPoolAddre...  DEBUG loadAddresses: DataObject address, clid = 4190, name = Bkg_RPCPAD
AthenaPoolAddre...  DEBUG loadAddresses: DataObject address, clid = 133273, name = Bkg_TruthEvent
AthenaPoolAddre...  DEBUG loadAddresses: DataObject address, clid = 38853911, name = Bkg_EventInfoAux.
AthenaPoolAddre...  DEBUG loadAddresses: DataObject address, clid = 41658935, name = Bkg_MDT_SDO
AthenaPoolAddre...  DEBUG loadAddresses: DataObject address, clid = 41658935, name = Bkg_RPC_SDO
AthenaPoolAddre...  DEBUG loadAddresses: DataObject address, clid = 41658935, name = Bkg_TGC_SDO
AthenaPoolAddre...  DEBUG loadAddresses: DataObject address, clid = 45903698, name = Bkg_EventInfo
AthenaPoolAddre...  DEBUG loadAddresses: DataObject address, clid = 76321643, name = Bkg_EVNTtoHITS_timings
AthenaPoolAddre...  DEBUG loadAddresses: DataObject address, clid = 76321643, name = Bkg_HITStoRDO_timings
AthenaPoolAddre...  DEBUG loadAddresses: DataObject address, clid = 1095642046, name = Bkg_CSC_SDO
AthenaPoolAddre...  DEBUG loadAddresses: DataObject address, clid = 1235574503, name = Bkg_MuonEntryLayer
AthenaPoolAddre...  DEBUG loadAddresses: DataObject address, clid = 1244316195, name = Bkg_InTimeAntiKt4TruthJets
AthenaPoolAddre...  DEBUG loadAddresses: DataObject address, clid = 1244316195, name = Bkg_OutOfTimeAntiKt4TruthJets
AthenaPoolAddre...  DEBUG loadAddresses: DataObject address, clid = 1272974287, name = PileUpEventInfoAux.
AthenaPoolAddre...  DEBUG loadAddresses: DataObject address, clid = 1294631886, name = Bkg_InTimeAntiKt4TruthJetsAux.
AthenaPoolAddre...  DEBUG loadAddresses: DataObject address, clid = 1294631886, name = Bkg_OutOfTimeAntiKt4TruthJetsAux.
AthenaPoolAddre...  DEBUG loadAddresses: DataObject address, clid = 1320594112, name = PileUpEventInfo
AthenaPoolAddre...  DEBUG The current Event contains: 24 objects
AthenaPoolAddre...  DEBUG loadAddresses: DataObject address, clid = 2101, name = McEventInfo
AthenaPoolAddre...  DEBUG loadAddresses: DataObject address, clid = 2545, name = BCMHits
AthenaPoolAddre...  DEBUG loadAddresses: DataObject address, clid = 2545, name = BLMHits
AthenaPoolAddre...  DEBUG loadAddresses: DataObject address, clid = 2545, name = PixelHits
AthenaPoolAddre...  DEBUG loadAddresses: DataObject address, clid = 2545, name = SCT_Hits
AthenaPoolAddre...  DEBUG loadAddresses: DataObject address, clid = 2701, name = LArHitEMB
AthenaPoolAddre...  DEBUG loadAddresses: DataObject address, clid = 2701, name = LArHitEMEC
AthenaPoolAddre...  DEBUG loadAddresses: DataObject address, clid = 2701, name = LArHitFCAL
AthenaPoolAddre...  DEBUG loadAddresses: DataObject address, clid = 2701, name = LArHitHEC
AthenaPoolAddre...  DEBUG loadAddresses: DataObject address, clid = 2701, name = LArHitMiniFCAL
AthenaPoolAddre...  DEBUG loadAddresses: DataObject address, clid = 2960, name = MBTSHits
AthenaPoolAddre...  DEBUG loadAddresses: DataObject address, clid = 2960, name = TileHitVec
AthenaPoolAddre...  DEBUG loadAddresses: DataObject address, clid = 4051, name = RPC_Hits
AthenaPoolAddre...  DEBUG loadAddresses: DataObject address, clid = 4052, name = TGC_Hits
AthenaPoolAddre...  DEBUG loadAddresses: DataObject address, clid = 4053, name = CSC_Hits
AthenaPoolAddre...  DEBUG loadAddresses: DataObject address, clid = 4054, name = MDT_Hits
AthenaPoolAddre...  DEBUG loadAddresses: DataObject address, clid = 133273, name = TruthEvent
AthenaPoolAddre...  DEBUG loadAddresses: DataObject address, clid = 76321643, name = EVNTtoHITS_timings
AthenaPoolAddre...  DEBUG loadAddresses: DataObject address, clid = 947021836, name = TRTUncompressedHits
AthenaPoolAddre...  DEBUG loadAddresses: DataObject address, clid = 1235574503, name = CaloEntryLayer
AthenaPoolAddre...  DEBUG loadAddresses: DataObject address, clid = 1235574503, name = MuonEntryLayer
AthenaPoolAddre...  DEBUG loadAddresses: DataObject address, clid = 1235574503, name = MuonExitLayer
AthenaPoolAddre...  DEBUG loadAddresses: DataObject address, clid = 1312841250, name = LArCalibrationHitDeadMaterial
SecondaryEventS...  DEBUG EventSelectorAthenaPool::nextWithSkip
AthenaPoolAddre...  DEBUG Created dataHeader SecondaryEventSelector
AthenaPoolAddre...  DEBUG The current Event contains: 38 objects
AthenaPoolAddre...  DEBUG loadAddresses: DataObject address, clid = 2540, name = Bkg_PixelRDOs
AthenaPoolAddre...  DEBUG loadAddresses: DataObject address, clid = 2541, name = Bkg_SCT_RDOs
AthenaPoolAddre...  DEBUG loadAddresses: DataObject address, clid = 2542, name = Bkg_TRT_RDOs
AthenaPoolAddre...  DEBUG loadAddresses: DataObject address, clid = 2543, name = Bkg_BCM_SDO_Map
AthenaPoolAddre...  DEBUG loadAddresses: DataObject address, clid = 2543, name = Bkg_PixelSDO_Map
AthenaPoolAddre...  DEBUG loadAddresses: DataObject address, clid = 2543, name = Bkg_SCT_SDO_Map
AthenaPoolAddre...  DEBUG loadAddresses: DataObject address, clid = 2543, name = Bkg_TRT_SDO_Map
AthenaPoolAddre...  DEBUG loadAddresses: DataObject address, clid = 2590, name = Bkg_BCM_RDOs
AthenaPoolAddre...  DEBUG loadAddresses: DataObject address, clid = 2711, name = Bkg_LArDigitContainer_MC
AthenaPoolAddre...  DEBUG loadAddresses: DataObject address, clid = 2771, name = Bkg_LArTTL1EM
AthenaPoolAddre...  DEBUG loadAddresses: DataObject address, clid = 2771, name = Bkg_LArTTL1HAD
AthenaPoolAddre...  DEBUG loadAddresses: DataObject address, clid = 2925, name = Bkg_MuRcvDigitsCnt
AthenaPoolAddre...  DEBUG loadAddresses: DataObject address, clid = 2925, name = Bkg_TileDigitsCnt
AthenaPoolAddre...  DEBUG loadAddresses: DataObject address, clid = 2933, name = Bkg_TileTTL1Cnt
AthenaPoolAddre...  DEBUG loadAddresses: DataObject address, clid = 2933, name = Bkg_TileTTL1MBTS
AthenaPoolAddre...  DEBUG loadAddresses: DataObject address, clid = 2934, name = Bkg_TileL2Cnt
AthenaPoolAddre...  DEBUG loadAddresses: DataObject address, clid = 2954, name = Bkg_TileMuRcvCnt
AthenaPoolAddre...  DEBUG loadAddresses: DataObject address, clid = 4183, name = Bkg_CSCRDO
AthenaPoolAddre...  DEBUG loadAddresses: DataObject address, clid = 4186, name = Bkg_TGCRDO
AthenaPoolAddre...  DEBUG loadAddresses: DataObject address, clid = 4187, name = Bkg_MDTCSM
AthenaPoolAddre...  DEBUG loadAddresses: DataObject address, clid = 4190, name = Bkg_RPCPAD
AthenaPoolAddre...  DEBUG loadAddresses: DataObject address, clid = 133273, name = Bkg_TruthEvent
AthenaPoolAddre...  DEBUG loadAddresses: DataObject address, clid = 38853911, name = Bkg_EventInfoAux.
AthenaPoolAddre...  DEBUG loadAddresses: DataObject address, clid = 41658935, name = Bkg_MDT_SDO
AthenaPoolAddre...  DEBUG loadAddresses: DataObject address, clid = 41658935, name = Bkg_RPC_SDO
AthenaPoolAddre...  DEBUG loadAddresses: DataObject address, clid = 41658935, name = Bkg_TGC_SDO
AthenaPoolAddre...  DEBUG loadAddresses: DataObject address, clid = 45903698, name = Bkg_EventInfo
AthenaPoolAddre...  DEBUG loadAddresses: DataObject address, clid = 76321643, name = Bkg_EVNTtoHITS_timings
AthenaPoolAddre...  DEBUG loadAddresses: DataObject address, clid = 76321643, name = Bkg_HITStoRDO_timings
AthenaPoolAddre...  DEBUG loadAddresses: DataObject address, clid = 1095642046, name = Bkg_CSC_SDO
AthenaPoolAddre...  DEBUG loadAddresses: DataObject address, clid = 1235574503, name = Bkg_MuonEntryLayer
AthenaPoolAddre...  DEBUG loadAddresses: DataObject address, clid = 1244316195, name = Bkg_InTimeAntiKt4TruthJets
AthenaPoolAddre...  DEBUG loadAddresses: DataObject address, clid = 1244316195, name = Bkg_OutOfTimeAntiKt4TruthJets
AthenaPoolAddre...  DEBUG loadAddresses: DataObject address, clid = 1272974287, name = PileUpEventInfoAux.
AthenaPoolAddre...  DEBUG loadAddresses: DataObject address, clid = 1294631886, name = Bkg_InTimeAntiKt4TruthJetsAux.
AthenaPoolAddre...  DEBUG loadAddresses: DataObject address, clid = 1294631886, name = Bkg_OutOfTimeAntiKt4TruthJetsAux.
AthenaPoolAddre...  DEBUG loadAddresses: DataObject address, clid = 1320594112, name = PileUpEventInfo
AthenaPoolAddre...  DEBUG The current Event contains: 24 objects
AthenaPoolAddre...  DEBUG loadAddresses: DataObject address, clid = 2101, name = McEventInfo
AthenaPoolAddre...  DEBUG loadAddresses: DataObject address, clid = 2545, name = BCMHits
AthenaPoolAddre...  DEBUG loadAddresses: DataObject address, clid = 2545, name = BLMHits
AthenaPoolAddre...  DEBUG loadAddresses: DataObject address, clid = 2545, name = PixelHits
AthenaPoolAddre...  DEBUG loadAddresses: DataObject address, clid = 2545, name = SCT_Hits
AthenaPoolAddre...  DEBUG loadAddresses: DataObject address, clid = 2701, name = LArHitEMB
AthenaPoolAddre...  DEBUG loadAddresses: DataObject address, clid = 2701, name = LArHitEMEC
AthenaPoolAddre...  DEBUG loadAddresses: DataObject address, clid = 2701, name = LArHitFCAL
AthenaPoolAddre...  DEBUG loadAddresses: DataObject address, clid = 2701, name = LArHitHEC
AthenaPoolAddre...  DEBUG loadAddresses: DataObject address, clid = 2701, name = LArHitMiniFCAL
AthenaPoolAddre...  DEBUG loadAddresses: DataObject address, clid = 2960, name = MBTSHits
AthenaPoolAddre...  DEBUG loadAddresses: DataObject address, clid = 2960, name = TileHitVec
AthenaPoolAddre...  DEBUG loadAddresses: DataObject address, clid = 4051, name = RPC_Hits
AthenaPoolAddre...  DEBUG loadAddresses: DataObject address, clid = 4052, name = TGC_Hits
AthenaPoolAddre...  DEBUG loadAddresses: DataObject address, clid = 4053, name = CSC_Hits
AthenaPoolAddre...  DEBUG loadAddresses: DataObject address, clid = 4054, name = MDT_Hits
AthenaPoolAddre...  DEBUG loadAddresses: DataObject address, clid = 133273, name = TruthEvent
AthenaPoolAddre...  DEBUG loadAddresses: DataObject address, clid = 76321643, name = EVNTtoHITS_timings
AthenaPoolAddre...  DEBUG loadAddresses: DataObject address, clid = 947021836, name = TRTUncompressedHits
AthenaPoolAddre...  DEBUG loadAddresses: DataObject address, clid = 1235574503, name = CaloEntryLayer
AthenaPoolAddre...  DEBUG loadAddresses: DataObject address, clid = 1235574503, name = MuonEntryLayer
AthenaPoolAddre...  DEBUG loadAddresses: DataObject address, clid = 1235574503, name = MuonExitLayer
AthenaPoolAddre...  DEBUG loadAddresses: DataObject address, clid = 1312841250, name = LArCalibrationHitDeadMaterial
Stream1              INFO Metadata records written: 11
